[	0.0000000000000000e+00	1.0187848412971984e+01	]
[	2.0000000000000001e-01	1.0187848412971984e+01	]
[	4.0000000000000002e-01	1.0187848412971984e+01	]
[	5.9999999999999998e-01	1.0187848412971984e+01	]
[	8.0000000000000004e-01	1.0187848412971984e+01	]
[	1.0000000000000000e+00	1.0187848412971984e+01	]
