[	0.0000000000000000e+00	1.0000000000000000e+00	6.0395834851133403e-31	4.7018740012603634e-38	]
[	2.5000000000000000e-01	2.8865500613117306e-01	7.0829731441477806e-01	3.0476794544085917e-03	]
[	5.0000000000000000e-01	-1.0677014767034959e-13	6.0671727190186941e-01	3.9328272809838272e-01	]
[	7.5000000000000000e-01	-1.0677014761505481e-13	-1.0677013953581451e-13	1.0000000000001068e+00	]
[	1.0000000000000000e+00	-5.6116879591067953e-02	-2.5215172431950184e-01	1.2344214417044885e+00	]
