[	0.0000000000000000e+00	1.0246955339526592e+01	]
[	2.5000000000000000e-01	1.0246955339526592e+01	]
[	5.0000000000000000e-01	1.0246955339526592e+01	]
[	7.5000000000000000e-01	1.0246955339526592e+01	]
[	1.0000000000000000e+00	1.0246955339526592e+01	]
