------------------+------+--- Original --+-- Presolved --+----------------+----------------+------+---------+--------+-------+--------
Name              | Type | Conss |  Vars | Conss |  Vars |   Dual Bound   |  Primal Bound  | Gap% |  Iters  |  Nodes |  Time |       
------------------+------+-------+-------+-------+-------+----------------+----------------+------+---------+--------+-------+--------
linking               CIP       2       5       1       4                2                2    0.0         0        1     0.0 ok
j301_2                CIP      52      32      36      24               47               47    0.0      1415     4103     0.2 ok
stein27_super          BP     119     146     125      27                1                1    0.0      5895     1048     0.2 ok
mcf128-4-1            CIP    1832    2596     637    1566               14               14    0.0       855      139     0.1 ok
mcf64-4-1             CIP     928    1308     336     795               10               10    0.0       750       97     0.1 ok
bell5                 MIP      91     104      35      58       8966406.49       8966406.49    0.0       798      860     0.2 ok
blend2                MIP     274     353      94     160         7.598985         7.598985    0.0       818      154     0.3 ok
dcmulti               MBP     290     548     271     547           188182           188182    0.0      4004      281     1.6 ok
egout                 MBP      98     141      37      49         568.1007         568.1007    0.0        73        1     0.0 ok
enigma                 BP      21     100      21     100                0                0    0.0      4150      930     0.2 ok
flugpl                 IP      18      18      13      14          1201500          1201500    0.0       197      117     0.0 ok
gt2                    IP      29     188      28     173            21166            21166    0.0       142        1     0.0 ok
lseu                   BP      28      89      33      69             1120             1120    0.0      3367      882     0.2 ok
MANN_a9.clq            BP      72      45      72      45               16               16    0.0       249        5     0.1 ok
misc03                 BP      96     160      95     138             3360             3360    0.0      2122       77     0.5 ok
p0033                  BP      16      33      13      29             3089             3089    0.0        88        1     0.0 ok
p0548                  BP     176     548      56     104             8691             8691    0.0       917       12     0.1 ok
rgn                   MBP      24     180      66     115       82.1999974       82.1999974    0.0       737       14     0.1 ok
stein27                BP     118      29     118      27               18               18    0.0     15183     4232     0.6 ok
stein27_inf            BP     119      27     118      27            1e+20            1e+20   --        5212     1113     0.3 ok
vpm2                  CIP     402     548     201     167            13.75            13.75    0.0      4356      502     0.6 ok
cross_min.10.10.10     IP     481      91     289     105                1                1    0.0       604       47     0.2 ok
circle                QCP      10       3      10       3       4.57424748       4.57424748    0.0         9        1     0.0 ok
ex1224              MINLP       8      12       9      13     -0.943470548     -0.943470548    0.0       113        8     0.0 ok
ex1266              MIQCP      96     181      85     168             16.3             16.3    0.0      1291       20     0.2 ok
gastrans            MINLP     144      86      72      54         89.08584         89.08584    0.0       488        4     0.1 ok
m3                  MINLP      43      26      39      22             37.8             37.8    0.0       337       28     0.0 ok
meanvarx            MIQCP      45      36      37      30       14.3692078       14.3692078    0.0      1510      116     0.1 ok
parincQuadratic       QCP       5       3       5       3       49920.5481       49920.5481    0.0        17        1     0.0 ok
tltr                MIQCP      55      49      75      56       48.0666667       48.0666667    0.0       560       18     0.1 ok
4=79-P5=347-P6=307    CIP      13     162     394     529                3                3    0.0        14        1     0.1 ok
ormalized-bsg_10_4    CIP      31      20      77      66               -4               -4    0.0       565        6     0.1 ok
ormalized-mds_10_4    CIP      10      10      62      62                2                2    0.0        77        1     0.0 ok
rmalized-mds_50_25    CIP      50      50    1514    1514                3                3    0.0      3540       11     1.0 ok
13queen13.11112183     BP     101     169     129      81            1e+20            1e+20   --        1289        4     0.7 ok
76730--soft-33-100    CIP     102     233     159     295                4                4    0.0      3746       87     1.0 ok
wheel010.lap.opb.p    CIP     273     190     273     189               25               25    0.0      4449       15     1.9 ok
meanvarxsc            CIP      43      36      30      23       14.3692004       14.3692004    0.0      2398      171     0.1 ok
semicon1              CIP       5       5       3       3              1.1              1.1    0.0         2        4     0.0 ok
bart10.shuffled        BP     560     144     560     144               -0               -0    0.0        41        1     0.0 ok
findRoot              CIP       3     101       3     101                1                1    0.0         9        8     0.0 ok
pcu_0.01              CIP     161     609      65     516      0.167527525      0.167527525    0.0     25809     7720     1.1 ok
pcu_0.1               CIP     161     279      65     186      0.185145653      0.185145653    0.0      8899     3072     0.3 ok
sparse2               CIP      64      64      48      64               26               26    0.0     28566    36789     2.2 ok
packorb_1-FullIns     CIP     331      90     319      87               28               28    0.0       722        7     0.2 ok
partorb_1-FullIns     CIP     431     124     419     120                4                4    0.0      1433       11     0.6 ok
------------------+------+-------+-------+-------+-------+----------------+----------------+------+---------+--------+-------+--------

------------------------------[Nodes]---------------[Time]------
  Cnt  Pass  Time  Fail  total(k)     geom.     total     geom.
----------------------------------------------------------------
   46    46     0     0        62      38.3      15.8       1.0 
 shifted geom. [  100/ 10.0]          163.2                 0.3 
----------------------------------------------------------------
@02 timelimit: 3600
@01 SCIP(3.0.0)spx(1.7.0):default [GitHash: c95600b]
