Linux fifidick 4.2.0-34-generic #39~14.04.1-Ubuntu SMP Fri Mar 11 11:38:02 UTC 2016 x86_64 x86_64 x86_64 GNU/Linux
Tue Mar 22 15:50:38 CET 2016
@01 instances/CP/linking.cip ===========
Tue Mar 22 15:50:38 CET 2016
Tue Mar 22 15:50:38 CET 2016
@01 instances/CP/j301_2.cip ===========
Tue Mar 22 15:50:38 CET 2016
Tue Mar 22 15:50:39 CET 2016
@01 instances/CP/stein27_super.cip ===========
Tue Mar 22 15:50:39 CET 2016
Tue Mar 22 15:50:39 CET 2016
@01 instances/Indicator/mcf128-4-1.lp ===========
Tue Mar 22 15:50:39 CET 2016
Tue Mar 22 15:50:39 CET 2016
@01 instances/Indicator/mcf64-4-1.lp ===========
Tue Mar 22 15:50:39 CET 2016
Tue Mar 22 15:50:39 CET 2016
@01 instances/MIP/bell5.mps ===========
Tue Mar 22 15:50:39 CET 2016
Tue Mar 22 15:50:40 CET 2016
@01 instances/MIP/blend2.mps ===========
Tue Mar 22 15:50:40 CET 2016
Tue Mar 22 15:50:40 CET 2016
@01 instances/MIP/dcmulti.mps ===========
Tue Mar 22 15:50:40 CET 2016
Tue Mar 22 15:50:42 CET 2016
@01 instances/MIP/egout.mps ===========
Tue Mar 22 15:50:42 CET 2016
Tue Mar 22 15:50:42 CET 2016
@01 instances/MIP/enigma.mps ===========
Tue Mar 22 15:50:42 CET 2016
Tue Mar 22 15:50:42 CET 2016
@01 instances/MIP/flugpl.mps ===========
Tue Mar 22 15:50:42 CET 2016
Tue Mar 22 15:50:42 CET 2016
@01 instances/MIP/gt2.mps ===========
Tue Mar 22 15:50:42 CET 2016
Tue Mar 22 15:50:42 CET 2016
@01 instances/MIP/lseu.mps ===========
Tue Mar 22 15:50:42 CET 2016
Tue Mar 22 15:50:42 CET 2016
@01 instances/MIP/MANN_a9.clq.lp ===========
Tue Mar 22 15:50:42 CET 2016
Tue Mar 22 15:50:42 CET 2016
@01 instances/MIP/misc03.mps ===========
Tue Mar 22 15:50:42 CET 2016
Tue Mar 22 15:50:43 CET 2016
@01 instances/MIP/p0033.osil ===========
Tue Mar 22 15:50:43 CET 2016
Tue Mar 22 15:50:43 CET 2016
@01 instances/MIP/p0548.mps ===========
Tue Mar 22 15:50:43 CET 2016
Tue Mar 22 15:50:43 CET 2016
@01 instances/MIP/rgn.mps ===========
Tue Mar 22 15:50:43 CET 2016
Tue Mar 22 15:50:43 CET 2016
@01 instances/MIP/stein27.fzn ===========
Tue Mar 22 15:50:43 CET 2016
Tue Mar 22 15:50:44 CET 2016
@01 instances/MIP/stein27_inf.lp ===========
Tue Mar 22 15:50:44 CET 2016
Tue Mar 22 15:50:44 CET 2016
@01 instances/MIP/vpm2.fzn ===========
Tue Mar 22 15:50:44 CET 2016
Tue Mar 22 15:50:45 CET 2016
@01 instances/MINLP/bip_cross_min.10.10.10.1.pip ===========
Tue Mar 22 15:50:45 CET 2016
Tue Mar 22 15:50:45 CET 2016
@01 instances/MINLP/circle.osil ===========
Tue Mar 22 15:50:45 CET 2016
Tue Mar 22 15:50:45 CET 2016
@01 instances/MINLP/ex1224.osil ===========
Tue Mar 22 15:50:45 CET 2016
Tue Mar 22 15:50:45 CET 2016
@01 instances/MINLP/ex1266.mps ===========
Tue Mar 22 15:50:45 CET 2016
Tue Mar 22 15:50:46 CET 2016
@01 instances/MINLP/gastrans.cip ===========
Tue Mar 22 15:50:46 CET 2016
Tue Mar 22 15:50:46 CET 2016
@01 instances/MINLP/m3.osil ===========
Tue Mar 22 15:50:46 CET 2016
Tue Mar 22 15:50:46 CET 2016
@01 instances/MINLP/meanvarx.mps ===========
Tue Mar 22 15:50:46 CET 2016
Tue Mar 22 15:50:46 CET 2016
@01 instances/MINLP/parincQuadratic.osil ===========
Tue Mar 22 15:50:46 CET 2016
Tue Mar 22 15:50:46 CET 2016
@01 instances/MINLP/tltr.mps ===========
Tue Mar 22 15:50:46 CET 2016
Tue Mar 22 15:50:46 CET 2016
@01 instances/PseudoBoolean/factor-mod-size=9-P0=67-P1=349-P2=67-P3=499-P4=79-P5=347-P6=307-B.opb ===========
Tue Mar 22 15:50:46 CET 2016
Tue Mar 22 15:50:46 CET 2016
@01 instances/PseudoBoolean/normalized-bsg_10_4_5.opb ===========
Tue Mar 22 15:50:46 CET 2016
Tue Mar 22 15:50:46 CET 2016
@01 instances/PseudoBoolean/normalized-mds_10_4_3.opb ===========
Tue Mar 22 15:50:46 CET 2016
Tue Mar 22 15:50:46 CET 2016
@01 instances/PseudoBoolean/normalized-mds_50_25_5.opb ===========
Tue Mar 22 15:50:46 CET 2016
Tue Mar 22 15:50:48 CET 2016
@01 instances/PseudoBoolean/normalized-t2001.13queen13.1111218308.opb ===========
Tue Mar 22 15:50:48 CET 2016
Tue Mar 22 15:50:48 CET 2016
@01 instances/PseudoBoolean/normalized-t2001.13queen13.1110976730--soft-33-100-0.wbo ===========
Tue Mar 22 15:50:48 CET 2016
Tue Mar 22 15:50:50 CET 2016
@01 instances/PseudoBoolean/wheel010.lap.opb.pre.cip ===========
Tue Mar 22 15:50:50 CET 2016
Tue Mar 22 15:50:52 CET 2016
@01 instances/Semicontinuous/meanvarxsc.lp ===========
Tue Mar 22 15:50:52 CET 2016
Tue Mar 22 15:50:52 CET 2016
@01 instances/Semicontinuous/semicon1.mps ===========
Tue Mar 22 15:50:52 CET 2016
Tue Mar 22 15:50:52 CET 2016
@01 instances/SAT/bart10.shuffled.cnf ===========
Tue Mar 22 15:50:52 CET 2016
Tue Mar 22 15:50:52 CET 2016
@01 instances/SOS/findRoot.lp ===========
Tue Mar 22 15:50:52 CET 2016
Tue Mar 22 15:50:52 CET 2016
@01 instances/SOS/pcu_0.01.lp ===========
Tue Mar 22 15:50:52 CET 2016
Tue Mar 22 15:50:53 CET 2016
@01 instances/SOS/pcu_0.1.lp ===========
Tue Mar 22 15:50:53 CET 2016
Tue Mar 22 15:50:54 CET 2016
@01 instances/SOS/sparse2.lp ===========
Tue Mar 22 15:50:54 CET 2016
Tue Mar 22 15:50:56 CET 2016
@01 instances/Orbitope/packorb_1-FullIns_3.cip ===========
Tue Mar 22 15:50:56 CET 2016
Tue Mar 22 15:50:57 CET 2016
@01 instances/Orbitope/partorb_1-FullIns_3.cip ===========
Tue Mar 22 15:50:57 CET 2016
Tue Mar 22 15:50:57 CET 2016
Tue Mar 22 15:50:57 CET 2016
