\relax 
\providecommand{\transparent@use}[1]{}
\providecommand\hyper@newdestlabel[2]{}
\bibstyle{biblatex}
\bibdata{main-blx,example}
\citation{biblatex-control}
\providecommand\HyperFirstAtBeginDocument{\AtBeginDocument}
\HyperFirstAtBeginDocument{\ifx\hyper@anchor\@undefined
\global\let\oldcontentsline\contentsline
\gdef\contentsline#1#2#3#4{\oldcontentsline{#1}{#2}{#3}}
\global\let\oldnewlabel\newlabel
\gdef\newlabel#1#2{\newlabelxx{#1}#2}
\gdef\newlabelxx#1#2#3#4#5#6{\oldnewlabel{#1}{{#2}{#3}}}
\AtEndDocument{\ifx\hyper@anchor\@undefined
\let\contentsline\oldcontentsline
\let\newlabel\oldnewlabel
\fi}
\fi}
\global\let\hyper@last\relax 
\gdef\HyperFirstAtBeginDocument#1{#1}
\providecommand\HyField@AuxAddToFields[1]{}
\providecommand\HyField@AuxAddToCoFields[2]{}
\citation{*}
\@writefile{toc}{\boolfalse {citerequest}\boolfalse {citetracker}\boolfalse {pagetracker}\boolfalse {backtracker}\relax }
\@writefile{lof}{\boolfalse {citerequest}\boolfalse {citetracker}\boolfalse {pagetracker}\boolfalse {backtracker}\relax }
\@writefile{lot}{\boolfalse {citerequest}\boolfalse {citetracker}\boolfalse {pagetracker}\boolfalse {backtracker}\relax }
\select@language{english}
\@writefile{toc}{\defcounter {refsection}{0}\relax }\@writefile{toc}{\select@language{english}}
\@writefile{lof}{\defcounter {refsection}{0}\relax }\@writefile{lof}{\select@language{english}}
\@writefile{lot}{\defcounter {refsection}{0}\relax }\@writefile{lot}{\select@language{english}}
\select@language{english}
\@writefile{toc}{\select@language{english}}
\@writefile{lof}{\select@language{english}}
\@writefile{lot}{\select@language{english}}
\@writefile{toc}{\contentsline {chapter}{Declaration of Authorship}{i}{section*.1}}
\citation{klipp2002}
\citation{klipp2}
\@writefile{toc}{\contentsline {chapter}{Abstract}{ii}{section*.2}}
\abx@aux@page{1}{2}
\abx@aux@page{2}{2}
\citation{acado}
\citation{ampl}
\gdef \LT@i {\LT@entry 
    {1}{55.18645pt}\LT@entry 
    {1}{414.33138pt}}
\abx@aux@page{3}{5}
\abx@aux@page{4}{5}
\@input{Chapters/Chapter1.aux}
\citation{reviewMetNet}
\citation{diabetes}
\citation{cancer}
\citation{metEng}
\citation{biofuel}
\citation{metabolism}
\citation{TCA}
\citation{enzyme}
\citation{enzyme}
\abx@aux@page{5}{2}
\abx@aux@page{6}{2}
\abx@aux@page{7}{2}
\abx@aux@page{8}{2}
\abx@aux@page{9}{2}
\citation{enzyme}
\citation{enzyme}
\citation{metabolism}
\abx@aux@page{10}{3}
\abx@aux@page{11}{3}
\abx@aux@page{12}{3}
\abx@aux@page{13}{3}
\abx@aux@page{14}{3}
\abx@aux@page{15}{3}
\citation{klipp2002}
\citation{klipp2002}
\citation{just-in-time}
\citation{klipp2002}
\citation{klipp2002}
\citation{Biegler}
\citation{Biegler}
\citation{Biegler}
\citation{Biegler}
\citation{Biegler}
\abx@aux@page{16}{4}
\abx@aux@page{17}{4}
\abx@aux@page{18}{4}
\abx@aux@page{19}{4}
\abx@aux@page{20}{4}
\abx@aux@page{21}{5}
\abx@aux@page{22}{5}
\abx@aux@page{23}{5}
\abx@aux@page{24}{5}
\citation{optimality}
\citation{oyarzun2009}
\citation{Biegler}
\abx@aux@page{27}{6}
\abx@aux@page{28}{6}
\citation{just-in-time}
\citation{klipp2002}
\citation{klipp2002}
\citation{oyarzun2009}
\citation{klipp2}
\citation{klipp2}
\citation{klipp2002}
\citation{klipp2}
\citation{oyarzun2009}
\citation{oyarzun2009}
\citation{klipp2002}
\abx@aux@page{29}{7}
\abx@aux@page{32}{7}
\abx@aux@page{34}{7}
\abx@aux@page{37}{7}
\abx@aux@page{39}{7}
\@input{Chapters/Chapter2.aux}
\citation{klipp2002}
\abx@aux@page{41}{9}
\citation{klipp2002}
\citation{llorens_tau}
\abx@aux@page{43}{11}
\citation{klipp2002}
\citation{klipp2002}
\citation{klipp2002}
\citation{klipp2002}
\citation{klipp2002}
\citation{oyarzun2009}
\citation{oyarzun2009}
\citation{oyarzun2009}
\citation{oyarzun2009}
\citation{oyarzun2009}
\citation{oyarzun2009}
\citation{oyarzun2009}
\citation{oyarzun2009}
\citation{oyarzun2009}
\citation{oyarzun2009}
\citation{oyarzun2009}
\citation{oyarzun2009}
\citation{oyarzun2009}
\citation{pontryagin}
\citation{oyarzun2009}
\citation{bartl}
\citation{oyarzun2009}
\citation{bartl}
\abx@aux@page{48}{24}
\abx@aux@page{52}{24}
\abx@aux@page{55}{24}
\citation{pontryagin}
\citation{bartl}
\abx@aux@page{57}{25}
\abx@aux@page{58}{25}
\abx@aux@page{60}{25}
\citation{bartl}
\citation{bartl}
\citation{bartl}
\citation{bartl}
\abx@aux@page{64}{26}
\citation{Biegler}
\citation{Biegler}
\citation{Biegler}
\citation{Biegler}
\abx@aux@page{66}{27}
\abx@aux@page{67}{27}
\abx@aux@page{68}{27}
\abx@aux@page{69}{27}
\citation{klipp2}
\citation{oyarzun2009}
\citation{bartl}
\citation{klipp2}
\citation{Biegler}
\citation{Biegler}
\abx@aux@page{70}{28}
\abx@aux@page{73}{28}
\citation{klipp2}
\abx@aux@page{76}{29}
\citation{Biegler}
\abx@aux@page{77}{30}
\citation{dotcvp}
\citation{MATLAB}
\citation{acado}
\abx@aux@page{78}{32}
\abx@aux@page{79}{32}
\abx@aux@page{80}{33}
\citation{Biegler}
\citation{Biegler}
\abx@aux@page{81}{35}
\abx@aux@page{82}{35}
\citation{Biegler}
\citation{Biegler}
\abx@aux@page{83}{36}
\abx@aux@page{84}{36}
\citation{discretize}
\citation{discretize}
\citation{rungekutta}
\abx@aux@page{85}{37}
\abx@aux@page{86}{37}
\abx@aux@page{87}{37}
\citation{burrage}
\abx@aux@page{88}{38}
\citation{discretize}
\abx@aux@page{89}{40}
\citation{food}
\citation{discretize}
\abx@aux@page{90}{44}
\citation{KKT}
\citation{ipopt}
\citation{kite}
\citation{sqp}
\abx@aux@page{92}{46}
\abx@aux@page{93}{46}
\abx@aux@page{94}{46}
\citation{sres}
\citation{sres}
\citation{sres}
\abx@aux@page{95}{47}
\abx@aux@page{96}{47}
\abx@aux@page{97}{47}
\@input{Chapters/Chapter3.aux}
\citation{cvodes}
\abx@aux@page{99}{48}
\citation{ampl}
\citation{ipopt}
\abx@aux@page{100}{51}
\abx@aux@page{101}{51}
\citation{klipp2}
\citation{klipp2}
\abx@aux@page{103}{54}
\citation{klipp2}
\@input{Chapters/Chapter4.aux}
\citation{klipp2002}
\citation{klipp2}
\citation{klipp2}
\citation{klipp2}
\citation{klipp2}
\citation{klipp2002}
\abx@aux@page{105}{58}
\abx@aux@page{106}{58}
\abx@aux@page{107}{58}
\abx@aux@page{108}{58}
\abx@aux@page{109}{58}
\abx@aux@page{110}{60}
\@writefile{toc}{\contentsline {chapter}{Bibliography}{61}{chapter*.182}}
\abx@aux@page{111}{61}
\abx@aux@page{112}{61}
\abx@aux@page{113}{61}
\abx@aux@page{114}{61}
\abx@aux@page{115}{61}
\abx@aux@page{116}{61}
\abx@aux@page{117}{61}
\abx@aux@page{118}{61}
\abx@aux@page{119}{61}
\abx@aux@page{120}{62}
\abx@aux@page{121}{62}
\abx@aux@page{122}{62}
\abx@aux@page{123}{62}
\abx@aux@page{124}{62}
\abx@aux@page{125}{62}
\abx@aux@page{126}{62}
\abx@aux@page{127}{62}
\abx@aux@page{128}{62}
\abx@aux@page{129}{62}
\abx@aux@page{130}{62}
\abx@aux@page{131}{62}
\abx@aux@page{132}{62}
\abx@aux@page{133}{63}
\abx@aux@page{134}{63}
\abx@aux@page{135}{63}
\abx@aux@page{136}{63}
\abx@aux@page{137}{63}
\abx@aux@page{138}{63}
\abx@aux@page{139}{63}
\abx@aux@page{140}{63}
\abx@aux@page{141}{63}
\abx@aux@page{142}{63}
\abx@aux@page{143}{63}
\abx@aux@page{144}{64}
\abx@aux@page{145}{64}
\abx@aux@page{146}{64}
