7.820656e+00
7.712236e+00
7.624180e+00
7.757480e+00
7.796207e+00
1.041703e+01
9.020173e+00
7.697905e+00
7.944336e+00
7.692716e+00
9.168202e+00
7.847081e+00
8.166436e+00
7.703336e+00
7.668142e+00
7.788141e+00
2.000615e+01
2.636882e+01
1.036751e+01
1.289842e+01
8.051995e+00
8.890762e+00
7.600242e+00
7.689819e+00
7.707516e+00
7.715120e+00
7.563655e+00
8.263093e+00
8.213966e+00
7.713098e+00
1.084211e+01
1.631862e+01
7.834644e+00
7.789031e+00
7.664734e+00
7.790880e+00
7.928491e+00
7.664562e+00
1.752204e+01
1.092913e+01
8.479438e+00
7.905819e+00
7.727446e+00
1.499684e+01
7.990811e+00
7.736970e+00
8.050906e+00
8.263847e+00
8.572041e+00
7.752137e+00
7.719271e+00
1.312774e+01
1.058457e+01
1.067711e+01
7.672519e+00
1.178752e+01
8.476221e+00
7.731330e+00
7.653607e+00
9.733501e+00
7.750292e+00
7.458840e+00
1.772462e+01
7.653860e+00
7.962908e+00
2.449104e+01
1.418071e+01
8.545248e+00
7.882167e+00
1.150161e+01
8.006388e+00
7.816024e+00
1.554529e+01
1.600296e+01
7.644075e+00
7.705163e+00
1.471513e+01
7.759174e+00
7.763469e+00
7.784942e+00
8.750370e+00
1.047795e+01
1.021858e+01
7.739624e+00
7.746871e+00
7.363554e+00
1.993716e+01
1.233750e+01
7.811290e+00
7.678882e+00
7.723218e+00
7.648962e+00
8.427440e+00
7.743161e+00
7.997361e+00
1.101477e+01
8.327853e+00
7.805286e+00
8.732359e+00
3.844830e+01
7.757038e+00
7.763783e+00
8.075200e+00
7.673598e+00
7.943974e+00
7.750028e+00
8.127701e+00
9.131775e+00
1.499570e+01
7.822866e+00
7.625101e+00
7.651255e+00
7.838694e+00
1.668130e+01
8.212135e+00
7.938008e+00
1.541196e+01
7.764393e+00
9.378784e+00
4.289476e+01
8.127776e+00
2.420152e+01
7.802142e+00
7.586560e+00
1.232051e+01
7.791411e+00
7.963501e+00
7.751099e+00
7.625926e+00
7.721635e+00
9.307142e+00
8.223427e+00
7.752044e+00
7.556115e+00
7.625113e+00
9.128687e+00
7.715857e+00
1.222918e+01
7.915094e+00
2.918673e+01
1.274904e+01
7.662131e+00
7.769466e+00
1.003606e+01
7.720359e+00
7.779511e+00
1.387703e+01
7.697554e+00
7.628236e+00
7.635451e+00
7.830277e+00
7.573640e+00
7.562013e+00
9.188671e+00
7.809696e+00
7.807689e+00
7.665776e+00
7.770667e+00
7.797977e+00
1.472143e+01
7.614135e+00
7.635234e+00
7.747834e+00
7.675572e+00
7.610507e+00
7.787986e+00
8.304227e+00
7.629033e+00
7.706113e+00
7.885179e+00
8.953034e+00
8.057396e+00
7.699794e+00
9.207685e+00
2.531711e+01
7.740983e+00
7.653698e+00
1.320471e+01
8.311334e+00
8.411932e+00
7.776082e+00
7.760437e+00
8.881482e+00
1.694371e+01
8.920054e+00
8.100920e+00
7.750786e+00
7.756170e+00
7.560701e+00
7.943500e+00
1.003486e+01
8.968784e+00
7.692598e+00
7.519073e+00
7.677482e+00
1.049084e+01
1.084734e+01
7.724545e+00
7.650101e+00
7.745739e+00
7.863906e+00
9.460719e+00
7.877771e+00
1.021976e+01
7.757725e+00
7.665245e+00
8.442761e+00
8.655154e+00
7.631858e+00
9.478403e+00
1.448744e+01
8.481892e+00
1.259166e+01
7.697017e+00
8.271046e+00
7.592375e+00
8.973006e+00
7.957283e+00
1.506783e+01
7.805994e+00
8.017843e+00
7.943338e+00
8.692272e+00
7.619632e+00
7.872244e+00
9.118150e+00
8.996841e+00
7.372205e+00
7.686274e+00
8.743826e+00
2.348200e+01
8.244154e+00
7.923909e+00
1.129541e+01
7.945162e+00
1.356026e+01
1.963354e+01
1.251927e+01
7.539671e+00
7.644052e+00
7.607648e+00
7.478500e+00
1.287952e+01
8.099703e+00
7.662724e+00
7.801695e+00
8.256926e+00
8.553573e+00
7.650279e+00
7.649272e+00
7.605024e+00
7.868030e+00
9.251539e+00
7.691579e+00
9.055839e+00
8.233037e+00
7.659908e+00
7.769600e+00
7.724479e+00
9.473297e+00
7.802149e+00
7.643280e+00
8.277036e+00
7.760608e+00
8.175776e+00
7.776104e+00
7.684804e+00
2.106715e+01
1.738998e+01
1.165037e+01
7.839805e+00
7.620389e+00
8.149104e+00
7.675835e+00
1.547222e+01
8.408643e+00
7.825814e+00
1.117935e+01
8.024819e+00
1.112031e+01
7.724834e+00
8.329048e+00
1.360804e+01
7.796457e+00
7.611468e+00
1.623014e+01
1.018416e+01
8.050714e+00
8.010083e+00
7.986817e+00
7.778940e+00
7.757743e+00
8.154313e+00
8.225330e+00
7.614380e+00
2.730995e+01
7.618395e+00
7.778555e+00
7.571065e+00
7.717817e+00
7.665571e+00
7.797745e+00
8.858183e+00
9.615200e+00
1.181975e+01
7.725600e+00
7.779713e+00
1.375437e+01
7.694822e+00
7.566892e+00
1.443818e+01
7.820059e+00
8.487530e+00
8.574217e+00
7.840598e+00
8.006517e+00
1.801686e+01
7.758565e+00
7.785968e+00
7.762488e+00
1.032366e+01
7.631437e+00
1.002502e+01
8.462413e+00
7.802815e+00
7.728686e+00
2.480105e+01
8.058087e+00
8.575089e+00
7.850959e+00
7.936774e+00
7.687483e+00
7.644147e+00
7.783935e+00
7.812384e+00
9.251554e+00
7.652069e+00
1.024081e+01
7.850959e+00
7.787883e+00
7.689167e+00
7.706258e+00
8.326315e+00
9.255644e+00
7.754549e+00
1.569000e+01
7.488987e+00
7.754708e+00
8.435868e+00
2.484163e+01
1.203676e+01
8.252478e+00
1.077847e+01
8.417179e+00
7.640603e+00
8.175591e+00
7.662303e+00
7.392708e+00
7.720474e+00
8.006419e+00
7.614397e+00
1.970899e+01
1.900415e+01
8.868347e+00
7.820063e+00
1.076479e+01
9.925748e+00
7.773915e+00
7.665241e+00
8.006861e+00
8.043203e+00
7.706525e+00
1.802732e+01
7.806282e+00
7.672844e+00
7.653163e+00
8.294657e+00
1.345495e+01
7.837742e+00
7.740050e+00
7.734690e+00
8.928194e+00
9.132855e+00
7.724802e+00
7.603779e+00
1.079637e+01
7.707375e+00
7.716684e+00
7.630552e+00
7.619081e+00
7.758034e+00
7.727420e+00
2.110909e+01
1.936407e+01
7.639414e+00
8.887362e+00
7.589665e+00
7.795594e+00
7.626460e+00
7.761423e+00
8.248307e+00
9.321667e+00
8.252872e+00
7.762781e+00
1.364352e+01
7.357495e+00
2.694974e+01
7.721850e+00
7.796425e+00
7.893705e+00
7.873975e+00
9.746059e+00
8.312851e+00
1.071449e+01
2.411600e+01
8.320202e+00
9.574966e+00
5.127502e+01
7.598697e+00
8.051463e+00
1.375628e+01
8.234221e+00
2.134245e+01
8.539227e+00
1.220699e+01
7.642226e+00
7.617404e+00
1.184324e+01
7.660769e+00
7.656863e+00
7.786223e+00
7.712910e+00
1.257687e+01
7.801951e+00
1.034941e+01
8.042877e+00
1.903217e+01
7.759129e+00
7.725144e+00
7.692768e+00
7.769427e+00
7.658198e+00
7.766509e+00
7.743342e+00
7.740615e+00
2.091617e+01
7.840457e+00
2.211239e+01
8.091815e+00
7.943029e+00
1.085403e+01
7.774161e+00
7.768315e+00
7.660655e+00
1.016079e+01
7.857005e+00
7.721303e+00
7.702575e+00
9.946169e+00
7.551407e+00
7.738336e+00
7.681274e+00
7.796055e+00
7.610245e+00
9.847607e+00
1.615175e+01
7.785027e+00
8.316204e+00
8.381496e+00
8.136707e+00
7.702750e+00
7.779019e+00
1.182505e+01
7.772193e+00
9.467283e+00
7.601139e+00
7.650318e+00
7.715018e+00
7.675339e+00
1.363737e+01
7.843142e+00
7.672022e+00
1.146147e+01
7.981242e+00
2.150953e+01
7.795933e+00
9.522499e+00
8.865594e+00
7.800880e+00
9.451120e+00
9.224101e+00
1.849549e+01
7.706394e+00
7.646082e+00
9.083523e+00
7.739147e+00
1.134473e+01
1.210288e+01
1.675159e+01
8.389252e+00
7.438460e+00
9.397772e+00
7.744150e+00
7.744017e+00
8.145048e+00
1.524140e+01
7.928695e+00
7.694288e+00
7.773957e+00
7.775446e+00
7.931051e+00
1.403715e+01
7.632865e+00
7.778381e+00
1.054831e+01
7.774911e+00
7.648771e+00
7.802980e+00
2.164233e+01
7.867563e+00
8.372606e+00
7.586649e+00
8.347900e+00
7.711985e+00
4.212125e+01
7.725480e+00
7.877064e+00
7.625373e+00
7.812137e+00
8.282416e+00
7.651652e+00
7.607106e+00
7.700156e+00
7.972033e+00
1.438730e+01
1.095547e+01
7.784609e+00
7.905209e+00
7.703033e+00
7.613291e+00
7.578246e+00
9.375744e+00
8.380277e+00
1.362661e+01
7.875472e+00
1.383843e+01
7.547943e+00
1.001661e+01
7.662735e+00
7.701492e+00
1.736324e+01
7.793002e+00
7.670187e+00
8.839809e+00
7.688176e+00
2.362486e+01
7.723308e+00
7.609493e+00
8.105236e+00
7.616133e+00
7.760718e+00
7.668163e+00
7.733854e+00
7.892688e+00
8.123027e+00
7.847331e+00
7.659930e+00
7.636874e+00
8.110027e+00
7.745479e+00
7.758096e+00
7.851667e+00
7.520028e+00
7.839359e+00
9.721783e+00
7.755677e+00
7.726006e+00
7.769565e+00
7.674827e+00
7.885987e+00
8.364340e+00
7.643527e+00
7.797206e+00
7.729862e+00
7.789155e+00
7.654678e+00
8.102611e+00
9.105093e+00
1.398423e+01
7.733527e+00
8.113395e+00
9.543299e+00
8.163880e+00
7.663921e+00
7.819375e+00
1.063202e+01
7.569075e+00
7.693785e+00
1.397347e+01
1.726894e+01
8.672566e+00
7.650699e+00
1.068909e+01
2.868103e+01
1.433600e+01
1.980419e+01
7.631762e+00
7.662663e+00
8.040595e+00
7.658978e+00
1.676660e+01
8.026698e+00
7.648795e+00
1.031422e+01
8.073181e+00
7.850185e+00
7.746281e+00
1.845968e+01
2.563188e+01
7.720809e+00
1.864449e+01
7.660893e+00
7.991248e+00
7.750888e+00
7.391511e+00
1.400589e+01
1.358961e+01
8.133729e+00
8.149146e+00
7.853135e+00
7.770515e+00
7.647101e+00
8.184150e+00
7.690857e+00
8.204151e+00
7.797854e+00
3.968304e+01
7.690149e+00
7.835506e+00
7.750710e+00
7.725481e+00
7.844690e+00
7.757424e+00
8.832049e+00
8.419592e+00
1.225329e+01
8.154119e+00
1.349711e+01
7.633169e+00
7.906373e+00
1.139418e+01
7.968055e+00
1.900336e+01
8.052507e+00
8.504463e+00
7.653469e+00
7.707982e+00
7.771894e+00
8.054073e+00
7.739898e+00
7.978605e+00
7.688564e+00
1.324610e+01
7.814570e+00
8.634985e+00
7.717244e+00
7.623790e+00
7.750805e+00
8.356141e+00
8.067504e+00
7.823696e+00
7.751257e+00
8.572198e+00
7.781564e+00
1.062985e+01
7.775419e+00
7.645080e+00
8.182546e+00
7.822943e+00
7.657151e+00
8.138109e+00
7.638376e+00
7.675345e+00
7.415514e+00
7.726921e+00
7.769663e+00
1.289234e+01
7.620075e+00
7.423865e+00
7.748522e+00
7.615729e+00
7.706360e+00
1.147766e+01
8.092084e+00
7.699758e+00
7.840710e+00
9.565273e+00
1.262755e+01
9.136307e+00
8.031298e+00
7.713309e+00
8.498660e+00
7.712545e+00
7.421631e+00
1.311535e+01
7.641579e+00
7.824183e+00
7.520139e+00
7.674472e+00
8.564981e+00
8.003232e+00
7.607402e+00
8.405323e+00
7.952358e+00
7.694976e+00
7.641697e+00
1.035596e+01
7.641790e+00
7.665561e+00
7.668384e+00
7.584767e+00
7.782151e+00
1.234435e+01
3.950416e+01
8.290095e+00
7.749478e+00
1.785659e+01
7.986403e+00
1.170735e+01
7.750690e+00
7.553778e+00
7.826391e+00
7.790118e+00
7.988749e+00
8.928277e+00
7.728628e+00
7.627171e+00
7.746960e+00
7.526868e+00
7.606162e+00
7.797895e+00
7.751368e+00
7.723292e+00
1.455888e+01
2.067763e+01
1.317024e+01
8.993261e+00
7.743966e+00
7.652878e+00
8.161671e+00
9.764840e+00
1.428839e+01
8.096114e+00
8.301862e+00
7.726662e+00
7.715178e+00
7.706512e+00
1.150789e+01
7.986535e+00
7.760737e+00
4.013690e+01
1.125013e+01
7.702592e+00
7.695668e+00
8.025614e+00
8.390750e+00
7.928696e+00
7.658558e+00
1.620645e+01
7.659622e+00
7.751267e+00
7.952468e+00
7.450360e+00
7.403610e+00
7.682239e+00
8.145928e+00
8.007132e+00
7.904599e+00
9.445370e+00
8.846786e+00
7.739336e+00
7.737226e+00
8.074359e+00
7.408658e+00
2.062611e+01
7.924852e+00
7.841406e+00
7.728013e+00
2.283752e+01
8.874595e+00
7.720742e+00
7.673517e+00
7.669318e+00
7.930884e+00
1.154192e+01
7.665076e+00
8.043277e+00
7.674381e+00
1.645296e+01
7.825529e+00
7.381921e+00
7.768837e+00
7.699293e+00
7.717971e+00
2.045765e+01
7.980903e+00
7.779128e+00
8.189469e+00
1.606964e+01
7.904762e+00
1.879485e+01
7.465046e+00
7.725417e+00
8.543713e+00
9.705558e+00
8.734779e+00
7.774986e+00
7.741255e+00
7.691268e+00
7.796047e+00
7.754827e+00
7.703148e+00
7.770717e+00
7.717216e+00
7.811461e+00
7.636057e+00
8.675567e+00
7.665360e+00
7.675062e+00
9.622146e+00
7.695771e+00
7.863242e+00
7.733371e+00
9.787476e+00
7.731376e+00
7.627744e+00
7.693138e+00
7.756816e+00
7.871856e+00
8.071159e+00
8.360583e+00
8.021900e+00
7.748535e+00
7.683074e+00
7.632256e+00
9.157910e+00
7.704514e+00
7.691063e+00
9.054870e+00
2.026766e+01
7.597683e+00
7.633338e+00
7.705240e+00
8.045226e+00
9.860198e+00
7.900779e+00
7.771834e+00
8.056151e+00
1.946251e+01
7.871515e+00
7.616295e+00
7.772638e+00
7.534171e+00
8.168955e+00
8.135164e+00
7.687089e+00
7.865656e+00
8.247394e+00
7.654841e+00
8.154529e+00
7.847568e+00
8.560887e+00
1.602035e+01
8.073129e+00
9.982983e+00
7.688545e+00
9.040328e+00
7.653902e+00
9.668334e+00
7.600960e+00
7.982898e+00
2.116758e+01
7.558510e+00
1.938459e+01
7.828816e+00
8.459461e+00
7.748319e+00
7.598988e+00
7.804800e+00
7.551370e+00
1.704938e+01
8.091057e+00
7.929258e+00
7.726454e+00
9.605063e+00
8.430240e+00
8.492271e+00
8.623184e+00
7.634591e+00
9.960411e+00
7.645149e+00
8.753163e+00
7.692771e+00
9.860600e+00
1.125410e+01
7.628088e+00
7.594125e+00
3.473242e+01
1.258930e+01
2.161544e+01
1.322991e+01
7.890322e+00
8.233969e+00
7.750215e+00
1.080893e+01
7.930548e+00
8.822712e+00
8.045523e+00
1.374898e+01
7.819023e+00
7.375073e+00
7.673032e+00
9.759380e+00
1.159686e+01
7.635526e+00
8.527694e+00
7.615112e+00
8.438930e+00
8.579990e+00
1.055104e+01
1.490503e+01
1.742597e+01
7.714598e+00
7.689179e+00
7.840842e+00
2.286341e+01
8.459460e+00
7.492818e+00
7.984248e+00
7.672692e+00
7.979327e+00
7.679278e+00
8.355076e+00
8.879576e+00
1.167909e+01
7.969952e+00
7.454837e+00
2.226089e+01
1.091269e+01
1.357352e+01
7.743925e+00
7.651369e+00
7.659322e+00
7.819309e+00
8.454757e+00
9.892674e+00
7.662377e+00
8.016011e+00
7.847152e+00
7.468817e+00
7.732784e+00
7.629261e+00
7.369798e+00
7.741849e+00
7.739761e+00
7.389129e+00
7.685646e+00
8.076787e+00
7.609333e+00
7.698225e+00
1.135629e+01
7.826651e+00
7.845638e+00
8.374435e+00
9.627560e+00
7.645736e+00
7.740877e+00
1.606339e+01
7.915183e+00
7.751655e+00
7.770027e+00
8.733034e+00
1.123929e+01
7.678134e+00
2.063457e+01
7.644111e+00
7.931288e+00
8.473518e+00
8.710752e+00
7.582599e+00
8.905715e+00
7.355742e+00
7.821327e+00
8.226174e+00
2.522247e+01
1.300058e+01
8.509425e+00
1.321358e+01
7.725645e+00
7.652644e+00