  0  0.0000  0.0000  0.0000  0.3529  0.6471
     1  0.0000  0.0000  1.0000  0.0000  0.0000
     2 -0.0000  0.0833  0.2500  0.6667  0.0000
     3 -0.0000  0.5714  0.0000  0.4286  0.0000
     4 -0.0000  0.2500  0.2500  0.0000  0.5000
     5 -0.0000  0.0000  0.0000  1.0000  0.0000
     6  0.0000  1.0000  0.0000  0.0000  0.0000
     7  1.0000  0.0000  0.0000  0.0000  0.0000
     8  0.1000  0.9000  0.0000  0.0000  0.0000
     9  1.0000  0.0000  0.0000  0.0000  0.0000
    10  0.1996  0.8004  0.0000  0.0000  0.0000
    11  0.2121  0.7879  0.0000  0.0000  0.0000
    12  1.0000  0.0000  0.0000  0.0000  0.0000
    13  1.0000  0.0000  0.0000  0.0000  0.0000
    14  1.0000  0.0000  0.0000  0.0000  0.0000
    15  1.0000  0.0000  0.0000  0.0000  0.0000
    16  0.5000  0.4204  0.0000  0.0796  0.0000
    17  0.5000  0.3974  0.1026  0.0000  0.0000
    18  0.6250  0.3750  0.0000  0.0000  0.0000
    19  1.0000  0.0000  0.0000  0.0000  0.0000
    20  1.0000  0.0000  0.0000  0.0000  0.0000
    21  0.5000  0.2500  0.2500  0.0000  0.0000
    22  0.0077  0.0000  0.0000  0.9923  0.0000
    23  0.5000  0.2743  0.2257  0.0000  0.0000
    24  0.0000  0.0000  0.0000  0.0000  1.0000
    25  0.0235  0.0000  0.9765  0.0000  0.0000
    26  0.0000  0.0000  0.0000  0.0000  1.0000
    27  1.0000  0.0000  0.0000  0.0000  0.0000
    28  0.8442  0.1558  0.0000  0.0000  0.0000
    29  0.0097  0.0000  0.9903  0.0000  0.0000
    30  1.0000  0.0000  0.0000  0.0000  0.0000
    31  1.0000  0.0000  0.0000  0.0000  0.0000
    32  0.0243  0.0000  0.9757  0.0000  0.0000
    33  1.0000  0.0000  0.0000  0.0000  0.0000
    34  0.0151  0.0000  0.9849  0.0000  0.0000
    35  0.0000  0.0000  0.0000  0.0000  1.0000
    36  1.0000  0.0000  0.0000  0.0000  0.0000
    37  1.0000  0.0000  0.0000  0.0000  0.0000
    38  1.0000  0.0000  0.0000  0.0000  0.0000
    39  0.9507  0.0493  0.0000  0.0000  0.0000
    40  0.3000  0.7000  0.0000  0.0000  0.0000
    41  0.2500  0.7500  0.0000  0.0000  0.0000
    42  0.0000  0.1581  0.8419  0.0000  0.0000
    43  0.0000  1.0000  0.0000  0.0000  0.0000
    44  1.0000  0.0000  0.0000  0.0000  0.0000
    45  0.0000  0.3122  0.6878  0.0000  0.0000
    46  0.0000  0.3301  0.6699  0.0000  0.0000
    47  0.0000  0.7500  0.2500  0.0000  0.0000
    48  0.0000  1.0000  0.0000  0.0000  0.0000
    49  0.0000  0.0000  1.0000  0.0000  0.0000
    50  0.0000  1.0000  0.0000  0.0000  0.0000
    51  0.0000  1.0000  0.0000  0.0000  0.0000
    52  0.0000  0.1681  0.0000  0.8319  0.0000
    53  0.0000  0.0000  1.0000  0.0000  0.0000
    54  0.0000  0.3878  0.6122  0.0000  0.0000
    55  0.0000  0.4221  0.5779  0.0000  0.0000
    56  0.0000  0.2500  0.7500  0.0000  0.0000
    57  0.0000  0.7991  0.2009  0.0000  0.0000
    58  0.0000  0.8116  0.1884  0.0000  0.0000
    59  0.0000  0.8234  0.1766  0.0000  0.0000
    60  0.0000  0.3185  0.0000  0.6815  0.0000
    61  0.0000  0.2500  0.7500  0.0000  0.0000
    62  0.0000  0.0000  1.0000  0.0000  0.0000
    63  0.0000  0.3355  0.0000  0.6645  0.0000
    64  0.0000  0.0000  1.0000  0.0000  0.0000
    65  0.0000  1.0000  0.0000  0.0000  0.0000
    66  0.0000  0.0000  1.0000  0.0000  0.0000
    67  0.0000  0.5000  0.5000  0.0000  0.0000
    68  0.0000  0.0000  0.3505  0.6495  0.0000
    69  0.0000  0.0000  1.0000  0.0000  0.0000
    70  0.0000  0.0000  0.3777  0.6223  0.0000
    71  0.0000  0.0000  0.0000  1.0000  0.0000
    72  0.0000  0.0000  0.4515  0.0000  0.5485
    73  0.0000  0.0000  0.3917  0.6083  0.0000
    74  0.0000  0.0000  0.0000  1.0000  0.0000
    75  0.0000  0.9719  0.0281  0.0000  0.0000
    76  0.0000  0.0000  0.5000  0.0594  0.4406
    77  0.0000  0.3009  0.4372  0.2619  0.0000
    78  0.0000  0.0000  0.0000  1.0000  0.0000
    79  0.0000  1.0000  0.0000  0.0000  0.0000
    80  0.0000  0.0000  0.5000  0.5000  0.0000
    81  0.0000  0.0000  0.0000  1.0000  0.0000
    82  0.0000  0.0000  1.0000  0.0000  0.0000
    83  0.0000  1.0000  0.0000  0.0000  0.0000
    84  0.0000  0.0000  0.0000  1.0000  0.0000
    85  0.0000  0.0000  0.0000  1.0000  0.0000
    86  0.0000  0.0000  0.0000  1.0000  0.0000
    87  0.0000  1.0000  0.0000  0.0000  0.0000
    88  0.0000  0.0000  0.0000  0.8684  0.1316
    89  0.0000  0.0000  0.0000  1.0000  0.0000
    90  0.0000  0.0000  0.0000  0.8920  0.1080
    91  0.0000  1.0000  0.0000  0.0000  0.0000
    92  1.0000  0.0000  0.0000  0.0000  0.0000
    93  0.0000  0.0000  0.0000  1.0000  0.0000
    94  0.0000  1.0000  0.0000  0.0000  0.0000
    95  0.0000  0.0000  0.0000  1.0000  0.0000
    96  0.0000  1.0000  0.0000  0.0000  0.0000
    97  1.0000  0.0000  0.0000  0.0000  0.0000
    98  0.0000  0.0000  0.0000  1.0000  0.0000
    99  0.0000  0.0000  0.0000  1.0000  0.0000
   100  0.0000  0.0000  1.0000  0.0000  0.0000
   101  0.0000  1.0000  0.0000  0.0000  0.0000
   102  0.0000  1.0000  0.0000  0.0000  0.0000
   103  0.0000  0.1000  0.4000  0.5000  0.0000
   104  0.0000  0.0000  0.0000  1.0000  0.0000
   105  1.0000  0.0000  0.0000  0.0000  0.0000
   106  0.0000  1.0000  0.0000  0.0000  0.0000
   107  0.0000  0.0000  1.0000  0.0000  0.0000
   108  0.1983  0.3017  0.0000  0.5000  0.0000
   109  1.0000  0.0000  0.0000  0.0000  0.0000
   110  0.0000  1.0000  0.0000  0.0000  0.0000
   111  0.0000  1.0000  0.0000  0.0000  0.0000
   112  0.0000  0.0000  1.0000  0.0000  0.0000
   113  0.0000  0.0000  1.0000  0.0000  0.0000
   114  0.0000  0.0000  1.0000  0.0000  0.0000
   115  0.0000  0.0000  1.0000  0.0000  0.0000
   116  0.0000  0.0000  0.0000  1.0000  0.0000
   117  0.0000  0.0000  1.0000  0.0000  0.0000
   118  0.0000  0.0000  0.0000  1.0000  0.0000
   119  0.0000  0.0000  1.0000  0.0000  0.0000
   120  0.0000  0.0000  0.0000  1.0000  0.0000
   121  0.0000  0.0000  0.0000  1.0000  0.0000
   122  0.0000  0.0000  0.0000  1.0000  0.0000
   123  0.0000  0.0000  0.0000  1.0000  0.0000
   124  0.0000  1.0000  0.0000  0.0000  0.0000
   125  1.0000  0.0000  0.0000  0.0000  0.0000
   126  0.3529  0.0000  0.2505  0.3965  0.0000
   127  0.2450  0.2500  0.2500  0.2500  0.0050
   128  0.0000  0.0000  0.0000  1.0000  0.0000
   129  0.0000  0.0000  1.0000  0.0000  0.0000
   130  0.0000  0.0000  0.0000  1.0000  0.0000
   131  0.0000  1.0000  0.0000  0.0000  0.0000
   132  0.0000  0.0000  0.0000  1.0000  0.0000
   133  0.0000  0.0000  1.0000  0.0000  0.0000
   134  0.0000  0.0000  0.0000  1.0000  0.0000
   135  0.0000  0.0000  1.0000  0.0000  0.0000
   136  0.0000  0.0000  0.0000  1.0000  0.0000
   137  0.0000  0.0000  1.0000  0.0000  0.0000
   138  0.0000  0.0000  0.0000  1.0000  0.0000
   139  0.0000  0.0000  0.1429  0.8571  0.0000
   140  0.0000  0.0000  1.0000  0.0000  0.0000
   141  0.0000  0.0000  1.0000  0.0000  0.0000
   142  0.0000  0.0000  0.0000  1.0000  0.0000
   143  0.0000  1.0000  0.0000  0.0000  0.0000
   144  0.0000  0.0000  1.0000  0.0000  0.0000
   145  0.0000  0.0000  0.0000  0.0000  1.0000
   146  0.0000  0.0000  0.0000  0.0000  1.0000
   147  0.0000  0.0000  0.0000  0.0000  1.0000
   148  0.0000  0.0000  0.0000  1.0000  0.0000
   149  0.0000  0.0000  0.0000  0.0000  1.0000
   150  0.0000  0.0000  0.0000  0.0000  1.0000
   151  1.0000  0.0000  0.0000  0.0000  0.0000
   152  0.0000  0.0000  0.0000  0.5000  0.5000
   153  0.0000  0.0000  0.0000  0.0000  1.0000
   154  0.0000  0.2500  0.0000  0.2500  0.5000
   155  0.0000  0.0000  0.0000  0.0000  1.0000
   156  0.0000  0.0000  0.0000  0.0000  1.0000
   157  0.0000  0.0000  0.0000  0.0000  1.0000
   158  1.0000  0.0000  0.0000  0.0000  0.0000
   159  0.0000  0.0000  0.0000  0.0000  1.0000
   160  0.0000  0.0000  0.0000  0.0000  1.0000
   161  0.0000  0.0000  0.0000  1.0000  0.0000
   162  0.0000  0.0000  0.0000  0.0000  1.0000
   163  0.0000  0.0000  0.0000  0.0000  1.0000
   164  0.0000  0.0000  0.0000  0.0000  1.0000
   165  0.0000  0.0000  0.0000  0.0000  1.0000
   166  0.0000  0.0000  0.0000  0.0000  1.0000
   167  0.0000  0.0000  0.0000  0.0000  1.0000
   168  0.0000  0.0000  0.0000  0.0000  1.0000
   169  0.0000  0.0000  0.0000  0.0000  1.0000
   170  0.0000  0.0000  0.0000  0.0000  1.0000
   171  0.0000  0.0000  0.0000  0.0000  1.0000
   172  0.0000  0.0000  0.0000  0.0000  1.0000
   173  0.0000  0.0000  0.0000  0.0000  1.0000
   174  0.0000  0.0000  0.0000  0.0000  1.0000
   175  0.0000  0.0000  0.0000  0.0000  1.0000
   176  0.0000  0.0000  0.0000  0.0000  1.0000
   177  0.0000  0.0000  0.5000  0.0000  0.5000
   178  0.0000  0.0000  0.0000  0.0000  1.0000
   179  0.0000  0.0000  0.0000  0.0000  1.0000