\relax 
\providecommand{\transparent@use}[1]{}
\providecommand\hyper@newdestlabel[2]{}
\@writefile{toc}{\contentsline {chapter}{\numberline {3}Results}{48}{chapter.168}}
\@writefile{lof}{\addvspace {10\p@ }}
\@writefile{lot}{\addvspace {10\p@ }}
\@writefile{toc}{\contentsline {section}{\numberline {3.1}Sequential Approach: Control Vector Parameterization}{48}{section.169}}
\@writefile{lof}{\contentsline {figure}{\numberline {3.1}{\ignorespaces Metabolite concentrations sequential $n=3$}}{49}{figure.caption.170}}
\newlabel{plot_dotcvp_metab}{{3.1}{49}{Metabolite concentrations sequential $n=3$}{figure.caption.170}{}}
\@writefile{lof}{\contentsline {figure}{\numberline {3.2}{\ignorespaces Enzyme concentrations sequential $n=3$}}{50}{figure.caption.171}}
\newlabel{Enzyme-concentrations-sequential-$n=3$}{{3.2}{50}{Enzyme concentrations sequential $n=3$}{figure.caption.171}{}}
\@writefile{toc}{\contentsline {section}{\numberline {3.2}Simultaneous Approach: Direct Transcription}{51}{section.172}}
\@writefile{lof}{\contentsline {figure}{\numberline {3.3}{\ignorespaces Metabolite concentrations simultaneous-$n=3$}}{51}{figure.caption.173}}
\@writefile{lof}{\contentsline {figure}{\numberline {3.4}{\ignorespaces Enzyme concentrations simultaneous $n=3$}}{52}{figure.caption.174}}
\newlabel{Enzyme-concentrations-simultaneous-$n=3$}{{3.4}{52}{Enzyme concentrations simultaneous $n=3$}{figure.caption.174}{}}
\@writefile{toc}{\contentsline {section}{\numberline {3.3}Multiple Shooting}{53}{section.175}}
\@writefile{lof}{\contentsline {figure}{\numberline {3.5}{\ignorespaces Metabolite concentrations mult. shooting-$n=3$}}{53}{figure.caption.176}}
\newlabel{mul_sh_met}{{3.5}{53}{Metabolite concentrations mult. shooting-$n=3$}{figure.caption.176}{}}
\@writefile{lof}{\contentsline {figure}{\numberline {3.6}{\ignorespaces Enzyme concentrations mult. shooting-$n=3$}}{54}{figure.caption.177}}
\@writefile{lof}{\contentsline {figure}{\numberline {3.7}{\ignorespaces Multiple shooting, multi-start frequencies-$n=3$}}{55}{figure.caption.178}}
\newlabel{acado_ms_f}{{3.7}{55}{Multiple shooting, multi-start frequencies-$n=3$}{figure.caption.178}{}}
\@writefile{lof}{\contentsline {figure}{\numberline {3.8}{\ignorespaces Multiple Shooting, local solution comparison}}{56}{figure.caption.179}}
\newlabel{diff_sol_acado}{{3.8}{56}{Multiple Shooting, local solution comparison}{figure.caption.179}{}}
\@writefile{lof}{\contentsline {figure}{\numberline {3.9}{\ignorespaces Multiple shooting, relationship of number of intervals and obj. value}}{56}{figure.caption.180}}
\newlabel{acado_ms__5}{{3.9}{56}{Multiple shooting, relationship of number of intervals and obj. value}{figure.caption.180}{}}
\@setckpt{Chapters/Chapter3}{
\setcounter{page}{58}
\setcounter{equation}{0}
\setcounter{enumi}{0}
\setcounter{enumii}{0}
\setcounter{enumiii}{0}
\setcounter{enumiv}{0}
\setcounter{footnote}{0}
\setcounter{mpfootnote}{0}
\setcounter{part}{0}
\setcounter{chapter}{3}
\setcounter{section}{3}
\setcounter{subsection}{0}
\setcounter{subsubsection}{0}
\setcounter{paragraph}{0}
\setcounter{subparagraph}{0}
\setcounter{figure}{9}
\setcounter{table}{0}
\setcounter{LT@tables}{1}
\setcounter{LT@chunks}{2}
\setcounter{ContinuedFloat}{0}
\setcounter{nprt@mantissa@digitsbefore}{0}
\setcounter{nprt@mantissa@digitsafter}{0}
\setcounter{nprt@exponent@digitsbefore}{0}
\setcounter{nprt@exponent@digitsafter}{0}
\setcounter{nprt@digitsfirstblock}{0}
\setcounter{nprt@blockcnt}{0}
\setcounter{nprt@cntprint}{0}
\setcounter{parentequation}{0}
\setcounter{float@type}{4}
\setcounter{SC@C}{0}
\setcounter{KVtest}{0}
\setcounter{subfigure}{0}
\setcounter{subfigure@save}{0}
\setcounter{lofdepth}{1}
\setcounter{subtable}{0}
\setcounter{subtable@save}{0}
\setcounter{lotdepth}{1}
\setcounter{svgfigure}{0}
\setcounter{tabx@nest}{0}
\setcounter{listtotal}{0}
\setcounter{listcount}{0}
\setcounter{liststart}{0}
\setcounter{liststop}{0}
\setcounter{citecount}{0}
\setcounter{citetotal}{0}
\setcounter{multicitecount}{0}
\setcounter{multicitetotal}{0}
\setcounter{instcount}{104}
\setcounter{maxnames}{3}
\setcounter{minnames}{1}
\setcounter{maxitems}{3}
\setcounter{minitems}{1}
\setcounter{citecounter}{0}
\setcounter{savedcitecounter}{0}
\setcounter{uniquelist}{0}
\setcounter{uniquename}{0}
\setcounter{refsection}{0}
\setcounter{refsegment}{0}
\setcounter{maxextrayear}{0}
\setcounter{maxextraalpha}{0}
\setcounter{abbrvpenalty}{50}
\setcounter{highnamepenalty}{50}
\setcounter{lownamepenalty}{25}
\setcounter{maxparens}{3}
\setcounter{parenlevel}{0}
\setcounter{mincomprange}{10}
\setcounter{maxcomprange}{100000}
\setcounter{mincompwidth}{1}
\setcounter{labelname}{0}
\setcounter{savedlabelname}{0}
\setcounter{author}{0}
\setcounter{savedauthor}{0}
\setcounter{shortauthor}{0}
\setcounter{savedshortauthor}{0}
\setcounter{editor}{0}
\setcounter{savededitor}{0}
\setcounter{editora}{0}
\setcounter{savededitora}{0}
\setcounter{editorb}{0}
\setcounter{savededitorb}{0}
\setcounter{editorc}{0}
\setcounter{savededitorc}{0}
\setcounter{shorteditor}{0}
\setcounter{savedshorteditor}{0}
\setcounter{bookauthor}{0}
\setcounter{savedbookauthor}{0}
\setcounter{translator}{0}
\setcounter{savedtranslator}{0}
\setcounter{annotator}{0}
\setcounter{savedannotator}{0}
\setcounter{commentator}{0}
\setcounter{savedcommentator}{0}
\setcounter{introduction}{0}
\setcounter{savedintroduction}{0}
\setcounter{foreword}{0}
\setcounter{savedforeword}{0}
\setcounter{afterword}{0}
\setcounter{savedafterword}{0}
\setcounter{holder}{0}
\setcounter{savedholder}{0}
\setcounter{namea}{0}
\setcounter{savednamea}{0}
\setcounter{nameb}{0}
\setcounter{savednameb}{0}
\setcounter{namec}{0}
\setcounter{savednamec}{0}
\setcounter{institution}{0}
\setcounter{savedinstitution}{0}
\setcounter{language}{0}
\setcounter{savedlanguage}{0}
\setcounter{location}{0}
\setcounter{savedlocation}{0}
\setcounter{organization}{0}
\setcounter{savedorganization}{0}
\setcounter{origlocation}{0}
\setcounter{savedoriglocation}{0}
\setcounter{origpublisher}{0}
\setcounter{savedorigpublisher}{0}
\setcounter{pageref}{0}
\setcounter{savedpageref}{0}
\setcounter{publisher}{0}
\setcounter{savedpublisher}{0}
\setcounter{lista}{0}
\setcounter{savedlista}{0}
\setcounter{listb}{0}
\setcounter{savedlistb}{0}
\setcounter{listc}{0}
\setcounter{savedlistc}{0}
\setcounter{listd}{0}
\setcounter{savedlistd}{0}
\setcounter{liste}{0}
\setcounter{savedliste}{0}
\setcounter{listf}{0}
\setcounter{savedlistf}{0}
\setcounter{textcitecount}{0}
\setcounter{textcitetotal}{0}
\setcounter{textcitemaxnames}{0}
\setcounter{biburlnumpenalty}{0}
\setcounter{biburlucpenalty}{0}
\setcounter{biburllcpenalty}{0}
\setcounter{smartand}{1}
\setcounter{bbx:relatedcount}{0}
\setcounter{bbx:relatedtotal}{0}
\setcounter{Item}{0}
\setcounter{Hfootnote}{0}
\setcounter{bookmark@seq@number}{29}
\setcounter{section@level}{1}
}
