\relax 
\providecommand{\transparent@use}[1]{}
\providecommand\hyper@newdestlabel[2]{}
\@writefile{toc}{\contentsline {chapter}{\numberline {2}Methods}{9}{chapter.16}}
\@writefile{lof}{\addvspace {10\p@ }}
\@writefile{lot}{\addvspace {10\p@ }}
\newlabel{Chapter2}{{2}{9}{Methods}{chapter.16}{}}
\newlabel{gpf}{{2.1}{9}{General problem formulation}{section.17}{}}
\@writefile{toc}{\contentsline {section}{\numberline {2.1}General problem formulation }{9}{section.17}}
\@writefile{toc}{\contentsline {section}{\numberline {2.2}Analytical solution}{10}{section.21}}
\@writefile{toc}{\contentsline {subsection}{\numberline {2.2.1}Explicit solution for 2-step pathways}{10}{subsection.22}}
\newlabel{A_sys}{{2.4}{10}{Explicit solution for 2-step pathways}{equation.23}{}}
\newlabel{A_sysdym}{{2.8}{11}{Explicit solution for 2-step pathways}{equation.27}{}}
\@writefile{toc}{\contentsline {subsubsection}{Definition of the transition time}{11}{section*.29}}
\newlabel{a_time_def}{{2.14}{12}{Definition of the transition time}{equation.34}{}}
\@writefile{toc}{\contentsline {subsubsection}{The assumption of stepwise constant enzyme concentrations}{12}{section*.35}}
\newlabel{tau_inv_left}{{2.15}{12}{The assumption of stepwise constant enzyme concentrations}{equation.36}{}}
\newlabel{diff_right}{{2.16}{12}{The assumption of stepwise constant enzyme concentrations}{equation.37}{}}
\newlabel{jacobi}{{2.18}{13}{The assumption of stepwise constant enzyme concentrations}{equation.39}{}}
\newlabel{diff_left}{{2.23}{13}{The assumption of stepwise constant enzyme concentrations}{equation.44}{}}
\newlabel{A_tau_gen}{{2.24}{13}{The assumption of stepwise constant enzyme concentrations}{equation.45}{}}
\@writefile{lof}{\contentsline {figure}{\numberline {2.1}{\ignorespaces Derivation of analytical solution}}{14}{figure.caption.46}}
\providecommand*\caption@xref[2]{\@setref\relax\@undefined{#1}}
\newlabel{ana1}{{2.1}{14}{Derivation of analytical solution}{figure.caption.46}{}}
\newlabel{A_scaled}{{2.43}{15}{The assumption of stepwise constant enzyme concentrations}{equation.65}{}}
\newlabel{tau_tilde}{{2.45}{15}{The assumption of stepwise constant enzyme concentrations}{equation.67}{}}
\newlabel{A_2.16}{{2.49}{17}{The assumption of stepwise constant enzyme concentrations}{equation.71}{}}
\newlabel{A_2.17}{{2.51}{17}{The assumption of stepwise constant enzyme concentrations}{equation.73}{}}
\newlabel{A_2.18}{{2.52}{17}{The assumption of stepwise constant enzyme concentrations}{equation.74}{}}
\newlabel{A_2.19}{{2.53}{18}{The assumption of stepwise constant enzyme concentrations}{equation.75}{}}
\newlabel{A_if_1}{{2.54}{18}{The assumption of stepwise constant enzyme concentrations}{equation.76}{}}
\newlabel{A_if_2}{{2.55}{18}{The assumption of stepwise constant enzyme concentrations}{equation.77}{}}
\newlabel{A_if_3}{{2.56}{18}{The assumption of stepwise constant enzyme concentrations}{equation.78}{}}
\newlabel{fx}{{2.59}{19}{The assumption of stepwise constant enzyme concentrations}{equation.81}{}}
\@writefile{lof}{\contentsline {figure}{\numberline {2.2}{\ignorespaces Derivation of analytical solution 2}}{20}{figure.caption.84}}
\newlabel{ana2}{{2.2}{20}{Derivation of analytical solution 2}{figure.caption.84}{}}
\newlabel{A_ydurchx_const}{{2.62}{20}{The assumption of stepwise constant enzyme concentrations}{equation.85}{}}
\@writefile{toc}{\contentsline {subsubsection}{Minimizing the transition time}{21}{section*.89}}
\newlabel{A_2.34}{{2.68}{22}{Minimizing the transition time}{equation.92}{}}
\newlabel{A_y}{{2.72}{23}{Minimizing the transition time}{equation.96}{}}
\@writefile{lof}{\contentsline {figure}{\numberline {2.3}{\ignorespaces Enzyme solution profile for the 2 step pathway}}{23}{figure.caption.99}}
\newlabel{ana_e}{{2.3}{23}{Enzyme solution profile for the 2 step pathway}{figure.caption.99}{}}
\@writefile{toc}{\contentsline {subsection}{\numberline {2.2.2}Pontryagin's Maximum Principle}{24}{subsection.100}}
\@writefile{toc}{\contentsline {section}{\numberline {2.3}Numerical methods}{27}{section.109}}
\@writefile{toc}{\contentsline {subsection}{\numberline {2.3.1}Dynamic Optimization: Overview and classification}{27}{subsection.110}}
\newlabel{o_solveY}{{2.85}{27}{Dynamic Optimization: Overview and classification}{equation.113}{}}
\newlabel{o_obj}{{2.86}{28}{Dynamic Optimization: Overview and classification}{equation.114}{}}
\newlabel{o_dynms_i}{{2.87}{28}{Dynamic Optimization: Overview and classification}{equation.115}{}}
\newlabel{o_alg}{{2.88}{28}{Dynamic Optimization: Overview and classification}{equation.116}{}}
\newlabel{o_pathc}{{2.89}{28}{Dynamic Optimization: Overview and classification}{equation.117}{}}
\newlabel{o_endpc}{{2.90}{28}{Dynamic Optimization: Overview and classification}{equation.118}{}}
\@writefile{lof}{\contentsline {figure}{\numberline {2.4}{\ignorespaces DAE optimization strategies}}{29}{figure.caption.119}}
\newlabel{o_class}{{2.4}{29}{DAE optimization strategies}{figure.caption.119}{}}
\@writefile{toc}{\contentsline {subsection}{\numberline {2.3.2}Sequential Approach: Control Vector Parameterization}{30}{subsection.121}}
\@writefile{lof}{\contentsline {figure}{\numberline {2.5}{\ignorespaces Control Vector Parameterization}}{32}{figure.caption.122}}
\newlabel{CVP}{{2.5}{32}{Control Vector Parameterization}{figure.caption.122}{}}
\@writefile{toc}{\contentsline {subsection}{\numberline {2.3.3}Multiple Shooting}{32}{subsection.123}}
\newlabel{Multi_sh}{{2.3.3}{33}{Multiple Shooting}{subsection.123}{}}
\newlabel{mul_vardef}{{2.92}{34}{Multiple Shooting}{equation.124}{}}
\newlabel{mul_obj}{{2.94}{34}{Multiple Shooting}{equation.126}{}}
\newlabel{mul_sysdym}{{2.95}{34}{Multiple Shooting}{equation.127}{}}
\newlabel{mul_initcond}{{2.97}{34}{Multiple Shooting}{equation.129}{}}
\newlabel{mul_endconst}{{2.98}{34}{Multiple Shooting}{equation.130}{}}
\newlabel{mul_pathconst}{{2.99}{34}{Multiple Shooting}{equation.131}{}}
\newlabel{mul_bounds}{{2.100}{34}{Multiple Shooting}{equation.132}{}}
\newlabel{mul_contin_2}{{2.101}{35}{Multiple Shooting}{equation.133}{}}
\@writefile{lof}{\contentsline {figure}{\numberline {2.6}{\ignorespaces Multiple shooting}}{35}{figure.caption.135}}
\newlabel{ms}{{2.6}{35}{Multiple shooting}{figure.caption.135}{}}
\@writefile{toc}{\contentsline {subsection}{\numberline {2.3.4}Simultaneous Approach: Direct Transcription}{36}{subsection.136}}
\newlabel{problem_simul}{{2.103}{36}{Simultaneous Approach: Direct Transcription}{equation.137}{}}
\@writefile{lof}{\contentsline {figure}{\numberline {2.7}{\ignorespaces Runge Kutta in general}}{38}{figure.caption.139}}
\newlabel{rkb}{{2.7}{38}{Runge Kutta in general}{figure.caption.139}{}}
\newlabel{sim_burrage1}{{2.105}{38}{Simultaneous Approach: Direct Transcription}{equation.140}{}}
\newlabel{sim_burrage1_5}{{2.106}{38}{Simultaneous Approach: Direct Transcription}{equation.141}{}}
\newlabel{sim_burrage2}{{2.107}{38}{Simultaneous Approach: Direct Transcription}{equation.142}{}}
\newlabel{matrix}{{2.108}{39}{Simultaneous Approach: Direct Transcription}{equation.143}{}}
\newlabel{butcher}{{2.110}{39}{Simultaneous Approach: Direct Transcription}{equation.145}{}}
\newlabel{rk}{{2.111}{40}{Simultaneous Approach: Direct Transcription}{equation.146}{}}
\@writefile{lof}{\contentsline {figure}{\numberline {2.8}{\ignorespaces Trapezoidal rule}}{41}{figure.caption.148}}
\newlabel{trapez}{{2.8}{41}{Trapezoidal rule}{figure.caption.148}{}}
\newlabel{tau}{{2.115}{43}{Simultaneous Approach: Direct Transcription}{equation.151}{}}
\newlabel{sysdym}{{2.116}{43}{Simultaneous Approach: Direct Transcription}{equation.152}{}}
\newlabel{disc_var}{{2.117}{43}{Simultaneous Approach: Direct Transcription}{equation.153}{}}
\newlabel{path_const}{{2.118}{43}{Simultaneous Approach: Direct Transcription}{equation.154}{}}
\newlabel{end_const}{{2.119}{43}{Simultaneous Approach: Direct Transcription}{equation.155}{}}
\newlabel{bounds}{{2.120}{43}{Simultaneous Approach: Direct Transcription}{equation.156}{}}
\newlabel{inits}{{2.121}{43}{Simultaneous Approach: Direct Transcription}{equation.157}{}}
\@writefile{toc}{\contentsline {subsection}{\numberline {2.3.5}NLP methods overview}{45}{subsection.158}}
\@writefile{lot}{\contentsline {table}{\numberline {2.1}{\ignorespaces Overview of different optimization software for non-linear optimization problems.\relax }}{45}{table.caption.159}}
\newlabel{table:1}{{2.1}{45}{Overview of different optimization software for non-linear optimization problems.\relax }{table.caption.159}{}}
\@writefile{toc}{\contentsline {subsubsection}{Interior Point Optimization (IPOPT)}{45}{section*.160}}
\newlabel{ipopt_ineq}{{2.124}{45}{Interior Point Optimization (IPOPT)}{equation.163}{}}
\newlabel{ipop_objf}{{2.125}{46}{Interior Point Optimization (IPOPT)}{equation.164}{}}
\@writefile{toc}{\contentsline {subsubsection}{Sequential Quadratic Programming (SQP)}{46}{section*.166}}
\@writefile{toc}{\contentsline {subsubsection}{Stochastic Ranking Evolution Strategy (SRES)}{47}{section*.167}}
\@setckpt{Chapters/Chapter2}{
\setcounter{page}{48}
\setcounter{equation}{126}
\setcounter{enumi}{0}
\setcounter{enumii}{0}
\setcounter{enumiii}{0}
\setcounter{enumiv}{0}
\setcounter{footnote}{0}
\setcounter{mpfootnote}{0}
\setcounter{part}{0}
\setcounter{chapter}{2}
\setcounter{section}{3}
\setcounter{subsection}{5}
\setcounter{subsubsection}{0}
\setcounter{paragraph}{0}
\setcounter{subparagraph}{0}
\setcounter{figure}{8}
\setcounter{table}{1}
\setcounter{LT@tables}{1}
\setcounter{LT@chunks}{2}
\setcounter{ContinuedFloat}{0}
\setcounter{nprt@mantissa@digitsbefore}{0}
\setcounter{nprt@mantissa@digitsafter}{0}
\setcounter{nprt@exponent@digitsbefore}{0}
\setcounter{nprt@exponent@digitsafter}{0}
\setcounter{nprt@digitsfirstblock}{0}
\setcounter{nprt@blockcnt}{0}
\setcounter{nprt@cntprint}{0}
\setcounter{parentequation}{0}
\setcounter{float@type}{4}
\setcounter{SC@C}{0}
\setcounter{KVtest}{0}
\setcounter{subfigure}{0}
\setcounter{subfigure@save}{0}
\setcounter{lofdepth}{1}
\setcounter{subtable}{0}
\setcounter{subtable@save}{0}
\setcounter{lotdepth}{1}
\setcounter{svgfigure}{0}
\setcounter{tabx@nest}{0}
\setcounter{listtotal}{0}
\setcounter{listcount}{0}
\setcounter{liststart}{0}
\setcounter{liststop}{0}
\setcounter{citecount}{0}
\setcounter{citetotal}{0}
\setcounter{multicitecount}{0}
\setcounter{multicitetotal}{0}
\setcounter{instcount}{98}
\setcounter{maxnames}{3}
\setcounter{minnames}{1}
\setcounter{maxitems}{3}
\setcounter{minitems}{1}
\setcounter{citecounter}{0}
\setcounter{savedcitecounter}{0}
\setcounter{uniquelist}{0}
\setcounter{uniquename}{0}
\setcounter{refsection}{0}
\setcounter{refsegment}{0}
\setcounter{maxextrayear}{0}
\setcounter{maxextraalpha}{0}
\setcounter{abbrvpenalty}{50}
\setcounter{highnamepenalty}{50}
\setcounter{lownamepenalty}{25}
\setcounter{maxparens}{3}
\setcounter{parenlevel}{0}
\setcounter{mincomprange}{10}
\setcounter{maxcomprange}{100000}
\setcounter{mincompwidth}{1}
\setcounter{labelname}{0}
\setcounter{savedlabelname}{0}
\setcounter{author}{0}
\setcounter{savedauthor}{0}
\setcounter{shortauthor}{0}
\setcounter{savedshortauthor}{0}
\setcounter{editor}{0}
\setcounter{savededitor}{0}
\setcounter{editora}{0}
\setcounter{savededitora}{0}
\setcounter{editorb}{0}
\setcounter{savededitorb}{0}
\setcounter{editorc}{0}
\setcounter{savededitorc}{0}
\setcounter{shorteditor}{0}
\setcounter{savedshorteditor}{0}
\setcounter{bookauthor}{0}
\setcounter{savedbookauthor}{0}
\setcounter{translator}{0}
\setcounter{savedtranslator}{0}
\setcounter{annotator}{0}
\setcounter{savedannotator}{0}
\setcounter{commentator}{0}
\setcounter{savedcommentator}{0}
\setcounter{introduction}{0}
\setcounter{savedintroduction}{0}
\setcounter{foreword}{0}
\setcounter{savedforeword}{0}
\setcounter{afterword}{0}
\setcounter{savedafterword}{0}
\setcounter{holder}{0}
\setcounter{savedholder}{0}
\setcounter{namea}{0}
\setcounter{savednamea}{0}
\setcounter{nameb}{0}
\setcounter{savednameb}{0}
\setcounter{namec}{0}
\setcounter{savednamec}{0}
\setcounter{institution}{0}
\setcounter{savedinstitution}{0}
\setcounter{language}{0}
\setcounter{savedlanguage}{0}
\setcounter{location}{0}
\setcounter{savedlocation}{0}
\setcounter{organization}{0}
\setcounter{savedorganization}{0}
\setcounter{origlocation}{0}
\setcounter{savedoriglocation}{0}
\setcounter{origpublisher}{0}
\setcounter{savedorigpublisher}{0}
\setcounter{pageref}{0}
\setcounter{savedpageref}{0}
\setcounter{publisher}{0}
\setcounter{savedpublisher}{0}
\setcounter{lista}{0}
\setcounter{savedlista}{0}
\setcounter{listb}{0}
\setcounter{savedlistb}{0}
\setcounter{listc}{0}
\setcounter{savedlistc}{0}
\setcounter{listd}{0}
\setcounter{savedlistd}{0}
\setcounter{liste}{0}
\setcounter{savedliste}{0}
\setcounter{listf}{0}
\setcounter{savedlistf}{0}
\setcounter{textcitecount}{0}
\setcounter{textcitetotal}{0}
\setcounter{textcitemaxnames}{0}
\setcounter{biburlnumpenalty}{0}
\setcounter{biburlucpenalty}{0}
\setcounter{biburllcpenalty}{0}
\setcounter{smartand}{1}
\setcounter{bbx:relatedcount}{0}
\setcounter{bbx:relatedtotal}{0}
\setcounter{Item}{0}
\setcounter{Hfootnote}{0}
\setcounter{bookmark@seq@number}{25}
\setcounter{section@level}{3}
}
